%YAML 1.1
%TAG !u! tag:unity3d.com,2011:
--- !u!114 &11400000
MonoBehaviour:
  m_ObjectHideFlags: 0
  m_CorrespondingSourceObject: {fileID: 0}
  m_PrefabInstance: {fileID: 0}
  m_PrefabAsset: {fileID: 0}
  m_GameObject: {fileID: 0}
  m_Enabled: 1
  m_EditorHideFlags: 0
  m_Script: {fileID: 11500000, guid: 711bab26ee4a1264fb72f80023526b46, type: 3}
  m_Name: Diamond
  m_EditorClassIdentifier: 
  <Score>k__BackingField: 2
  <Sprite>k__BackingField: {fileID: 21300000, guid: 9dcc6582099d496438fb61d592078d62, type: 3}
