%YAML 1.1
%TAG !u! tag:unity3d.com,2011:
--- !u!114 &11400000
MonoBehaviour:
  m_ObjectHideFlags: 0
  m_CorrespondingSourceObject: {fileID: 0}
  m_PrefabInstance: {fileID: 0}
  m_PrefabAsset: {fileID: 0}
  m_GameObject: {fileID: 0}
  m_Enabled: 1
  m_EditorHideFlags: 0
  m_Script: {fileID: 11500000, guid: 7bf089ce0239aac42b8e10feebc22cf2, type: 3}
  m_Name: BoardSettings
  m_EditorClassIdentifier: 
  <BorderOffset>k__BackingField: {x: 100, y: 50}
  <BoardSize>k__BackingField: {x: 6, y: 6}
  <TileSpacing>k__BackingField: {x: 25, y: 25}
  <TilesPath>k__BackingField: Tiles
  <SpecialTilesPath>k__BackingField: SpecialTiles
  <SpecialTileChance>k__BackingField: 0.05
  <UseRandomSeed>k__BackingField: 1
  <Seed>k__BackingField: 0
  <TilePrefab>k__BackingField: {fileID: 2928561990278593648, guid: 84ecce44a45bed64db9cd230bdf37bd7, type: 3}
